D:\myGitLabProgram\spring-cloud\2016-Brixton\microservice-consumer-movie-feign-with-hystrix\src\main\java\com\itmuch\cloud\study\user\entity\User.java
D:\myGitLabProgram\spring-cloud\2016-Brixton\microservice-consumer-movie-feign-with-hystrix\src\main\java\com\itmuch\cloud\study\user\controller\FeignHystrixController.java
D:\myGitLabProgram\spring-cloud\2016-Brixton\microservice-consumer-movie-feign-with-hystrix\src\main\java\com\itmuch\cloud\study\user\feign\UserFeignHystrixClient.java
D:\myGitLabProgram\spring-cloud\2016-Brixton\microservice-consumer-movie-feign-with-hystrix\src\main\java\com\itmuch\cloud\study\MovieFeignHystrixApplication.java
